<svg width="32" height="32" viewBox="0 0 32 32" fill="none" xmlns="http://www.w3.org/2000/svg">
<g clip-path="url(#clip0)">
<path d="M31.9992 16.0107C32.0865 24.3984 25.368 31.9343 16.141 31.9998C7.17577 32.0435 -0.0444063 24.7698 -0.000779897 15.8578C0.0428465 7.09878 7.11033 0.0216465 15.9011 -0.000196498C24.9972 -0.0220395 32.0428 7.47011 31.9992 16.0107ZM13.7634 16.9718C13.7634 20.3793 13.7634 23.6776 13.7634 27.0414C15.1594 27.0414 16.4682 27.0851 17.7988 27.0414C17.7988 26.3206 17.7988 25.6435 17.7988 24.9882C17.7988 24.3329 17.7988 23.6558 17.7988 23.0005C17.7988 22.3452 17.7988 21.6681 17.7988 21.0128C17.7988 20.3575 17.7988 19.6804 17.7988 19.0251C17.7988 18.3698 17.777 17.7145 17.8206 16.9937C18.9767 16.9937 20.0674 16.9937 21.1799 16.9937C21.3326 15.6612 21.5507 14.3943 21.6379 13.0838C20.3291 13.0401 19.0858 13.1056 17.777 13.0401C17.777 12.3629 17.777 11.7513 17.777 11.1397C17.777 10.7466 17.777 10.3315 17.8424 9.93837C17.9515 9.21755 18.366 8.82438 19.064 8.71516C19.3475 8.67148 19.6529 8.67148 19.9583 8.67148C20.5473 8.67148 21.1362 8.67148 21.7252 8.67148C21.7252 7.47011 21.7252 6.31243 21.7252 5.11107C20.8745 5.06738 20.0674 5.00185 19.2385 5.00185C18.6277 5.00185 18.0169 5.00185 17.428 5.13291C15.8356 5.46055 14.6795 6.37796 14.1124 7.92881C13.8506 8.64963 13.7415 9.41414 13.7415 10.2005C13.7415 10.9868 13.7415 11.7732 13.7415 12.5595C13.7415 12.7343 13.7197 12.8872 13.6979 13.1056C12.5636 13.1056 11.4948 13.1056 10.4041 13.1056C10.4041 14.4162 10.4041 15.6831 10.4041 17.0155C11.4948 16.9718 12.5636 16.9718 13.7634 16.9718Z" fill="#414447"/>
<path d="M13.7648 16.972C12.5869 16.972 11.4963 16.972 10.3838 16.972C10.3838 15.6396 10.3838 14.3946 10.3838 13.0621C11.4745 13.0621 12.5433 13.0621 13.6776 13.0621C13.6994 12.8437 13.7212 12.6908 13.7212 12.5161C13.7212 11.7297 13.7212 10.9434 13.7212 10.157C13.7212 9.3925 13.8303 8.628 14.092 7.88534C14.6592 6.33448 15.8153 5.41708 17.4076 5.08943C17.9966 4.98022 18.6292 4.95837 19.2181 4.95837C20.0252 4.95837 20.8541 5.0239 21.7049 5.06759C21.7049 6.26895 21.7049 7.40479 21.7049 8.628C21.0941 8.628 20.5269 8.628 19.938 8.628C19.6326 8.628 19.349 8.628 19.0436 8.67168C18.3456 8.7809 17.9312 9.19592 17.8221 9.89489C17.7567 10.2881 17.7567 10.7031 17.7567 11.0963C17.7567 11.7079 17.7567 12.3195 17.7567 12.9966C19.0655 13.0621 20.3088 12.9966 21.6176 13.0403C21.5303 14.3509 21.3122 15.6178 21.1595 16.9502C20.047 16.9502 18.9564 16.9502 17.8003 16.9502C17.7567 17.6928 17.7785 18.3481 17.7785 19.0034C17.7785 19.6587 17.7785 20.3358 17.7785 20.9911C17.7785 21.6464 17.7785 22.3236 17.7785 22.9788C17.7785 23.6341 17.7785 24.3113 17.7785 24.9666C17.7785 25.6219 17.7785 26.299 17.7785 27.0198C16.4479 27.0853 15.1391 27.0416 13.743 27.0198C13.7648 23.6778 13.7648 20.3795 13.7648 16.972Z" fill="white"/>
</g>
<defs>
<clipPath id="clip0">
<rect width="32" height="32" fill="white"/>
</clipPath>
</defs>
</svg>
