<svg width="120" height="113" viewBox="0 0 120 113" fill="none" xmlns="http://www.w3.org/2000/svg">
<path d="M118.879 46.2335L118.879 46.2342C120.876 57.026 117.895 67.5245 112.21 76.894C106.524 86.2656 98.1484 94.4803 89.4162 100.674C80.6863 106.848 71.6343 110.971 62.4087 112.152C53.1924 113.331 43.7723 111.577 34.284 105.945L34.2837 105.945C24.7626 100.303 15.1829 90.7714 8.66723 79.6678C2.15015 68.5617 -1.26867 55.9426 1.42645 44.1082L1.4266 44.1076C4.10735 32.2649 12.9399 21.1025 24.5277 13.0262C36.1117 4.9524 50.3866 0.00752532 63.8724 0.538956C77.3528 1.07018 90.1132 7.06678 100.008 15.6626C109.907 24.2615 116.896 35.4241 118.879 46.2335Z" fill="white" stroke="#EEEEEE"/>
</svg>
